Introduction • echos
…
Forecast

The function fabletools::forecast() is used to forecast the trained model 24-steps ahead. The object fcst is a fable containing the forecasts of the ESN.

# Forecast models
fcst <- mdl %>%
  fabletools::forecast(h = n_ahead)

fcst
#> # A fable: 24 x 8 [1h] <UTC>
#> # Key:     Series, Unit, BZN, split, .model [1]
#>    Series         Unit    BZN   split .model Time                    Value .mean
#>    <chr>          <chr>   <chr> <int> <chr>  <dttm>                 <dist> <dbl>
#>  1 Day-ahead Pri~ [EUR/M~ DE      176 ESN    2019-10-03 00:00:00 N(27, 15)  26.9
#>  2 Day-ahead Pri~ [EUR/M~ DE      176 ESN    2019-10-03 01:00:00 N(28, 30)  27.7
#>  3 Day-ahead Pri~ [EUR/M~ DE      176 ESN    2019-10-03 02:00:00 N(29, 51)  29.0
#>  4 Day-ahead Pri~ [EUR/M~ DE      176 ESN    2019-10-03 03:00:00 N(31, 61)  31.4
#>  5 Day-ahead Pri~ [EUR/M~ DE      176 ESN    2019-10-03 04:00:00 N(40, 65)  39.8
#>  6 Day-ahead Pri~ [EUR/M~ DE      176 ESN    2019-10-03 05:00:00 N(45, 60)  45.2
#>  7 Day-ahead Pri~ [EUR/M~ DE      176 ESN    2019-10-03 06:00:00 N(47, 64)  46.9
#>  8 Day-ahead Pri~ [EUR/M~ DE      176 ESN    2019-10-03 07:00:00 N(46, 64)  46.1
#>  9 Day-ahead Pri~ [EUR/M~ DE      176 ESN    2019-10-03 08:00:00 N(45, 59)  44.6
#> 10 Day-ahead Pri~ [EUR/M~ DE      176 ESN    2019-10-03 09:00:00 N(43, 59)  42.9
#> # ... with 14 more rows
…
