Rolling forecasts • echos
…
Prepare the data

The dataset is filtered to the two time series "M21655"
and "M2717".

selected_series <- c("M21655", "M2717")

data_frame <- m4_monthly_subset %>%
  filter(series %in% selected_series)

data_frame
#> # A tsibble: 494 x 4 [1M]
#> # Key:       series [2]
#>    series category       index value
#>    <chr>  <fct>          <mth> <dbl>
#>  1 M21655 Demographic 1995 Jan  4970
#>  2 M21655 Demographic 1995 Feb  5010
#>  3 M21655 Demographic 1995 Mar  5060
#>  4 M21655 Demographic 1995 Apr  5010
#>  5 M21655 Demographic 1995 May  5610
#>  6 M21655 Demographic 1995 Jun  6040
#>  7 M21655 Demographic 1995 Jul  6450
#>  8 M21655 Demographic 1995 Aug  6370
#>  9 M21655 Demographic 1995 Sep  5190
#> 10 M21655 Demographic 1995 Oct  5250
#> # ℹ 484 more rows
…
n_required <- n_train + n_ahead + (n_splits - 1) * n_step

Only the most recent observations required for the rolling evaluation
are retained. This ensures that both series contribute the same number
of observations and splits.

analysis_frame <- data_frame %>%
  group_by_key() %>%
  slice_tail(n = n_required) %>%
  ungroup()

analysis_frame
#> # A tsibble: 404 x 4 [1M]
#> # Key:       series [2]
#>    series category       index value
#>    <chr>  <fct>          <mth> <dbl>
#>  1 M21655 Demographic 1998 Jun  5830
#>  2 M21655 Demographic 1998 Jul  6310
#>  3 M21655 Demographic 1998 Aug  6280
#>  4 M21655 Demographic 1998 Sep  5230
#>  5 M21655 Demographic 1998 Oct  5110
#>  6 M21655 Demographic 1998 Nov  5120
#>  7 M21655 Demographic 1998 Dec  5100
#>  8 M21655 Demographic 1999 Jan  4880
#>  9 M21655 Demographic 1999 Feb  4940
#> 10 M21655 Demographic 1999 Mar  5040
#> # ℹ 394 more rows
…
slide_tsibble() creates fixed rolling windows by
observation. The new variable split is added to the tsibble
key and identifies the individual training windows.

train_frame <- analysis_frame %>%
  slide_tsibble(
    .size = n_train,
    .step = n_step,
    .id = "split"
  ) %>%
  filter(split <= n_splits)

train_frame
#> # A tsibble: 1,800 x 5 [1M]
#> # Key:       split, series [10]
#>    series category       index value split
#>    <chr>  <fct>          <mth> <dbl> <int>
#>  1 M21655 Demographic 1998 Jun  5830     1
#>  2 M21655 Demographic 1998 Jul  6310     1
#>  3 M21655 Demographic 1998 Aug  6280     1
#>  4 M21655 Demographic 1998 Sep  5230     1
#>  5 M21655 Demographic 1998 Oct  5110     1
#>  6 M21655 Demographic 1998 Nov  5120     1
#>  7 M21655 Demographic 1998 Dec  5100     1
#>  8 M21655 Demographic 1999 Jan  4880     1
#>  9 M21655 Demographic 1999 Feb  4940     1
#> 10 M21655 Demographic 1999 Mar  5040     1
#> # ℹ 1,790 more rows
…
Generate rolling forecasts

An 18-month-ahead forecast is generated for each fitted ESN.

fable_frame <- model_frame %>%
  forecast(h = n_ahead)

fable_frame
#> # A fable: 180 x 6 [1M]
#> # Key:     split, series, .model [10]
#>    split series .model    index
#>    <int> <chr>  <chr>     <mth>
#>  1     1 M21655 ESN    2013 Jun
#>  2     1 M21655 ESN    2013 Jul
#>  3     1 M21655 ESN    2013 Aug
#>  4     1 M21655 ESN    2013 Sep
#>  5     1 M21655 ESN    2013 Oct
#>  6     1 M21655 ESN    2013 Nov
#>  7     1 M21655 ESN    2013 Dec
#>  8     1 M21655 ESN    2014 Jan
#>  9     1 M21655 ESN    2014 Feb
#> 10     1 M21655 ESN    2014 Mar
#> # ℹ 170 more rows
#> # ℹ 2 more variables: value <dist>, .mean <dbl>
…
plot_frame
#> # A tibble: 360 × 5
#>    series split    index type     value
#>    <chr>  <int>    <mth> <chr>    <dbl>
#>  1 M21655     1 2013 Jun ACTUAL   5900 
#>  2 M21655     1 2013 Jun FORECAST 5962.
#>  3 M21655     1 2013 Jul ACTUAL   6290 
#>  4 M21655     1 2013 Jul FORECAST 6327.
#>  5 M21655     1 2013 Aug ACTUAL   6180 
#>  6 M21655     1 2013 Aug FORECAST 6150.
#>  7 M21655     1 2013 Sep ACTUAL   5360 
#>  8 M21655     1 2013 Sep FORECAST 5480.
#>  9 M21655     1 2013 Oct ACTUAL   5310 
#> 10 M21655     1 2013 Oct FORECAST 5397.
#> # ℹ 350 more rows
…
