Train an Echo State Network — train_esn • echos
…
#> $method$model_meta$old_range
#> [1] -101   87
#> 
#> $method$model_meta$alpha
#> [1] 1
#> 
#> $method$model_meta$rho
#> [1] 1
#> 
#> $method$model_meta$density
#> [1] 0.5
#> 
#> 
#> $method$model_metrics
#> # A tibble: 114 × 11
#>    model      loglik  nobs    df  lambda   aic  aicc   bic   hqc     mse    mae
#>    <chr>       <dbl> <int> <dbl>   <dbl> <dbl> <dbl> <dbl> <dbl>   <dbl>  <dbl>
#>  1 model(077)   195.   135  19.2 0.0159  -352. -345. -296. -329. 0.00326 0.0445
#>  2 model(037)   195.   135  19.4 0.0148  -352. -345. -296. -329. 0.00324 0.0444
#>  3 model(043)   185.   135  15.6 0.0750  -339. -335. -294. -321. 0.00377 0.0471
#>  4 model(035)   199.   135  21.1 0.00800 -355. -347. -294. -330. 0.00309 0.0433
#>  5 model(055)   185.   135  15.5 0.0780  -338. -334. -293. -320. 0.00379 0.0472
#>  6 model(071)   184.   135  15.3 0.0861  -337. -333. -293. -319. 0.00384 0.0474
#>  7 model(110)   202.   135  22.9 0.00465 -358. -348. -291. -330. 0.00295 0.0422
#>  8 model(080)   204.   135  24.4 0.00324 -360. -348. -289. -331. 0.00284 0.0414
#>  9 model(025)   177.   135  13.9 0.165   -325. -322. -285. -309. 0.00428 0.0493
#> 10 model(089)   176.   135  13.8 0.171   -324. -321. -284. -308. 0.00432 0.0495
#> # ℹ 104 more rows
…
