…
``` r
xdata <- as.numeric(AirPassengers)
fit <- tune_esn(
  y = xdata,
  n_ahead = 12,
  n_split = 5,
  alpha = c(0.2, 0.5, 1),
  rho   = c(0.5, 1.0),
  tau   = c(0.2, 0.4),
  inf_crit = "bic"
)

fit$pars
#> # A tibble: 60 × 11
#>    alpha   rho   tau split train_start train_end test_start test_end   mse   mae
#>    <dbl> <dbl> <dbl> <int>       <int>     <int>      <int>    <int> <dbl> <dbl>
#>  1   0.2   0.5   0.2     1           1        84         85       96 2079.  32.4
#>  2   0.2   0.5   0.2     2           1        96         97      108 4143.  47.5
#>  3   0.2   0.5   0.2     3           1       108        109      120 3236.  46.5
#>  4   0.2   0.5   0.2     4           1       120        121      132 5204.  50.6
#>  5   0.2   0.5   0.2     5           1       132        133      144 6725.  58.9
#>  6   0.2   0.5   0.4     1           1        84         85       96 2288.  35.2
#>  7   0.2   0.5   0.4     2           1        96         97      108 2756.  38.0
#>  8   0.2   0.5   0.4     3           1       108        109      120 3133.  47.2
#>  9   0.2   0.5   0.4     4           1       120        121      132 4009.  48.1
#> 10   0.2   0.5   0.4     5           1       132        133      144 5852.  54.9
#> # ℹ 50 more rows
#> # ℹ 1 more variable: id <int>
```
